<?xml version="1.0" encoding="UTF-8" standalone="no"?>
<!DOCTYPE svg PUBLIC "-//W3C//DTD SVG 1.1//EN" "http://www.w3.org/Graphics/SVG/1.1/DTD/svg11.dtd">
<svg xmlns:dc="http://purl.org/dc/elements/1.1/" xmlns:xl="http://www.w3.org/1999/xlink" version="1.1" xmlns="http://www.w3.org/2000/svg" viewBox="731.4382 389.818 99.25058 104.73558" width="99.25058" height="104.73558">
  <defs/>
  <metadata> Produced by OmniGraffle 7.8.2 
    <dc:date>2019-04-09 17:32:54 +0000</dc:date>
  </metadata>
  <g id="Canvas_1" fill-opacity="1" stroke-dasharray="none" stroke="none" stroke-opacity="1" fill="none">
    <title>Canvas 1</title>
    <g id="Canvas_1: Layer 1">
      <title>Layer 1</title>
      <g id="Graphic_30">
        <path d="M 781.0645 463.3753 C 777.1115 463.3753 773.4865 461.0563 771.8265 457.4663 C 771.1015 455.8993 769.2465 455.2173 767.6755 455.9403 C 766.1075 456.6663 765.4215 458.5243 766.1485 460.0933 C 768.8265 465.8883 774.6815 469.6333 781.0645 469.6333 C 790.1215 469.6333 797.4885 462.2653 797.4885 453.2083 C 797.4885 447.8503 794.9185 442.9603 790.7165 439.9193 L 796.8825 431.4973 C 796.9295 431.4333 796.9605 431.3623 797.0005 431.2963 C 797.0255 431.2583 797.0625 431.2293 797.0845 431.1883 C 797.1075 431.1483 797.1195 431.1043 797.1405 431.0613 C 797.1875 430.9703 797.2265 430.8783 797.2635 430.7833 C 797.3005 430.6813 797.3395 430.5793 797.3695 430.4743 C 797.3925 430.3863 797.4125 430.2993 797.4275 430.2103 C 797.4495 430.0953 797.4645 429.9813 797.4725 429.8663 C 797.4785 429.7853 797.4785 429.7043 797.4785 429.6223 C 797.4785 429.5013 797.4725 429.3823 797.4575 429.2633 C 797.4475 429.1853 797.4335 429.1083 797.4185 429.0323 C 797.3925 428.9133 797.3655 428.7963 797.3265 428.6793 C 797.3005 428.6053 797.2735 428.5343 797.2445 428.4603 C 797.1975 428.3473 797.1445 428.2363 797.0855 428.1273 C 797.0485 428.0603 797.0055 427.9973 796.9645 427.9323 C 796.8945 427.8253 796.8205 427.7243 796.7365 427.6243 C 796.6875 427.5673 796.6345 427.5143 796.5825 427.4593 C 796.4885 427.3663 796.3905 427.2773 796.2855 427.1943 C 796.2575 427.1713 796.2365 427.1453 796.2075 427.1243 C 796.1685 427.0963 796.1255 427.0773 796.0845 427.0523 C 796.0235 427.0113 795.9685 426.9623 795.9065 426.9243 C 791.3965 424.3683 786.2635 423.0173 781.0645 423.0173 C 780.0875 423.0173 779.1155 423.0783 778.1425 423.1733 L 778.1425 422.4143 C 778.1425 420.6863 776.7425 419.2863 775.0155 419.2863 C 773.2875 419.2863 771.8865 420.6863 771.8865 422.4143 L 771.8865 424.4603 C 770.3455 424.9503 768.8415 425.5553 767.4045 426.2883 C 765.8655 427.0733 765.2535 428.9563 766.0395 430.4953 C 766.8225 432.0363 768.7095 432.6473 770.2445 431.8633 C 770.7855 431.5893 771.3325 431.3433 771.8865 431.1113 L 771.8865 443.4013 C 771.8865 452.6473 777.1385 455.4103 780.2695 456.2333 C 780.5355 456.3033 780.8025 456.3373 781.0665 456.3373 C 782.4535 456.3373 783.7185 455.4073 784.0895 454.0033 C 784.5295 452.3323 783.5315 450.6223 781.8615 450.1823 C 780.8435 449.9153 778.1425 449.2043 778.1425 443.4013 L 778.1425 429.4523 C 779.1035 429.3353 780.0785 429.2743 781.0645 429.2743 C 783.9885 429.2743 786.8825 429.8233 789.5955 430.8603 L 783.5895 439.0573 C 783.5805 439.0713 783.5745 439.0913 783.5645 439.1043 C 783.5005 439.1903 783.4555 439.2873 783.4005 439.3823 C 783.3475 439.4773 783.2915 439.5673 783.2485 439.6663 C 783.2405 439.6833 783.2285 439.6983 783.2205 439.7153 C 783.1955 439.7813 783.1835 439.8513 783.1625 439.9193 C 783.1255 440.0323 783.0855 440.1453 783.0605 440.2593 C 783.0415 440.3543 783.0335 440.4513 783.0235 440.5483 C 783.0095 440.6513 782.9945 440.7533 782.9945 440.8573 C 782.9925 440.9613 783.0015 441.0623 783.0095 441.1643 C 783.0195 441.2633 783.0255 441.3593 783.0435 441.4563 C 783.0605 441.5563 783.0895 441.6513 783.1175 441.7473 C 783.1465 441.8453 783.1695 441.9423 783.2055 442.0383 C 783.2425 442.1283 783.2875 442.2133 783.3305 442.3003 C 783.3775 442.3933 783.4195 442.4853 783.4765 442.5743 C 783.5315 442.6603 783.5955 442.7393 783.6605 442.8193 C 783.7185 442.8973 783.7795 442.9773 783.8455 443.0523 C 783.9255 443.1353 784.0135 443.2073 784.1035 443.2803 C 784.1605 443.3293 784.2055 443.3853 784.2675 443.4293 C 784.2855 443.4423 784.3045 443.4523 784.3245 443.4643 C 784.3735 443.4983 784.4275 443.5293 784.4805 443.5603 C 784.5995 443.6333 784.7205 443.7003 784.8455 443.7563 C 784.8755 443.7683 784.8985 443.7873 784.9255 443.7993 C 788.7555 445.3743 791.2325 449.0663 791.2325 453.2083 C 791.2325 458.8133 786.6695 463.3753 781.0645 463.3753 M 807.4595 450.3733 C 807.6875 450.3733 807.9195 450.3493 808.1525 450.2963 C 809.8395 449.9153 810.8965 448.2413 810.5135 446.5573 C 809.5725 442.3893 807.7895 438.5373 805.2125 435.1063 C 804.1755 433.7283 802.2145 433.4463 800.8345 434.4843 C 799.4515 435.5223 799.1715 437.4833 800.2105 438.8653 C 802.2515 441.5833 803.6665 444.6363 804.4125 447.9343 C 804.7385 449.3883 806.0295 450.3733 807.4595 450.3733 M 808.0665 456.8353 C 806.3905 456.4063 804.6895 457.4243 804.2635 459.0983 C 801.5665 469.7213 792.0255 477.1423 781.0645 477.1423 C 776.8865 477.1423 772.7695 476.0433 769.1605 473.9643 C 767.6645 473.1043 765.7505 473.6193 764.8885 475.1153 C 764.0275 476.6143 764.5415 478.5263 766.0395 479.3883 C 770.5975 482.0113 775.7935 483.3963 781.0645 483.3963 C 794.8905 483.3963 806.9235 474.0373 810.3285 460.6363 C 810.7535 458.9623 809.7405 457.2613 808.0665 456.8353 M 757.1305 453.2083 C 757.1305 452.0193 757.2185 450.8273 757.3925 449.6633 C 757.6465 447.9533 756.4685 446.3613 754.7595 446.1073 C 753.0485 445.8503 751.4575 447.0293 751.2035 448.7403 C 750.9845 450.2093 750.8755 451.7123 750.8755 453.2083 C 750.8755 459.5633 752.8345 465.6463 756.5415 470.8013 C 757.1545 471.6523 758.1115 472.1033 759.0845 472.1033 C 759.7165 472.1033 760.3555 471.9113 760.9105 471.5143 C 762.3105 470.5053 762.6305 468.5513 761.6215 467.1473 C 758.6855 463.0643 757.1305 458.2443 757.1305 453.2083 M 761.6875 434.0813 C 760.3285 433.0133 758.3615 433.2513 757.2945 434.6103 C 756.9725 435.0193 756.6645 435.4383 756.3635 435.8643 C 755.3695 437.2783 755.7095 439.2293 757.1235 440.2233 C 757.6695 440.6083 758.2985 440.7923 758.9195 440.7923 C 759.9045 440.7923 760.8715 440.3303 761.4825 439.4643 C 761.7165 439.1273 761.9645 438.7973 762.2165 438.4743 C 763.2855 437.1143 763.0465 435.1473 761.6875 434.0813 M 758.3325 483.2643 C 753.7425 479.7833 749.9535 475.2333 747.3695 470.1053 C 746.5915 468.5623 744.7105 467.9383 743.1685 468.7213 C 741.6235 469.4963 741.0035 471.3773 741.7795 472.9213 C 744.7915 478.8963 749.2095 484.1963 754.5505 488.2493 C 755.1175 488.6793 755.7815 488.8843 756.4395 488.8843 C 757.3845 488.8843 758.3205 488.4583 758.9355 487.6463 C 759.9785 486.2693 759.7095 484.3083 758.3325 483.2643 M 743.8065 458.9733 C 743.5135 457.0803 743.3675 455.1403 743.3655 453.2083 C 743.3655 437.6963 753.1155 423.5393 767.6255 417.9823 C 769.2385 417.3653 770.0445 415.5573 769.4275 413.9423 C 768.8105 412.3293 767.0005 411.5213 765.3885 412.1423 C 748.4745 418.6163 737.1075 435.1203 737.1075 453.2083 C 737.1095 455.4593 737.2835 457.7193 737.6235 459.9243 C 737.8575 461.4713 739.1915 462.5773 740.7105 462.5773 C 740.8675 462.5773 741.0295 462.5643 741.1895 462.5413 C 742.8985 462.2773 744.0685 460.6803 743.8065 458.9733 M 781.0645 409.2523 C 779.3375 409.2523 777.9355 410.6533 777.9355 412.3803 C 777.9335 414.1083 779.3355 415.5083 781.0625 415.5093 C 783.9185 415.5093 786.7635 415.8313 789.5235 416.4663 C 789.7575 416.5203 789.9945 416.5463 790.2265 416.5463 C 791.6505 416.5463 792.9395 415.5643 793.2715 414.1163 C 793.6585 412.4323 792.6055 410.7533 790.9235 410.3663 C 787.7075 409.6293 784.3885 409.2533 781.0645 409.2523 M 804.3105 415.9153 C 802.8455 415.0013 800.9165 415.4453 799.9985 416.9073 C 799.0825 418.3733 799.5275 420.3043 800.9925 421.2213 C 812.1195 428.1813 818.7615 440.1403 818.7615 453.2083 C 818.7615 460.1093 816.8735 466.8623 813.2965 472.7383 C 812.3965 474.2143 812.8655 476.1403 814.3415 477.0373 C 814.8495 477.3473 815.4125 477.4943 815.9645 477.4943 C 817.0215 477.4943 818.0505 476.9593 818.6405 475.9923 C 822.8145 469.1343 825.0195 461.2573 825.0195 453.2083 C 825.0195 437.9673 817.2775 424.0263 804.3105 415.9153 M 806.0805 481.3833 C 805.7245 481.6973 805.3675 482.0063 805.0035 482.3073 C 803.6695 483.4043 803.4805 485.3763 804.5785 486.7103 C 805.1975 487.4613 806.0915 487.8503 806.9945 487.8503 C 807.6955 487.8503 808.3985 487.6153 808.9825 487.1353 C 809.4085 486.7833 809.8285 486.4243 810.2385 486.0583 C 811.5295 484.9083 811.6445 482.9333 810.4985 481.6423 C 809.3495 480.3513 807.3695 480.2353 806.0805 481.3833 M 740.7035 419.6143 C 741.5525 419.6143 742.3985 419.2713 743.0155 418.5953 C 743.2855 418.2983 743.5585 418.0053 743.8355 417.7143 C 745.0275 416.4633 744.9785 414.4813 743.7265 413.2903 C 742.4745 412.0983 740.4965 412.1473 739.3045 413.3993 C 738.9985 413.7233 738.6915 414.0493 738.3925 414.3783 C 737.2285 415.6533 737.3185 417.6333 738.5955 418.7983 C 739.1955 419.3453 739.9515 419.6143 740.7035 419.6143 M 751.8225 410.2563 C 752.3985 410.2563 752.9785 410.0983 753.5025 409.7653 C 761.7405 404.5193 771.2695 401.7433 781.0605 401.7433 L 781.0645 401.7433 C 782.7915 401.7433 784.1935 400.3443 784.1935 398.6163 C 784.1935 396.8893 782.7915 395.4873 781.0645 395.4873 L 781.0605 395.4873 C 770.0765 395.4873 759.3845 398.5993 750.1385 404.4883 C 748.6815 405.4173 748.2515 407.3513 749.1815 408.8083 C 749.7775 409.7443 750.7895 410.2563 751.8225 410.2563 M 792.4255 399.7123 C 792.8825 398.0453 794.5995 397.0633 796.2695 397.5193 C 803.7755 399.5713 810.6955 403.0753 816.8355 407.9363 C 818.1915 409.0093 818.4185 410.9783 817.3495 412.3313 C 816.7305 413.1103 815.8145 413.5193 814.8945 413.5193 C 814.2125 413.5193 813.5255 413.2983 812.9535 412.8433 C 807.4765 408.5073 801.3065 405.3823 794.6195 403.5553 C 792.9535 403.0993 791.9705 401.3803 792.4255 399.7123" fill="white"/>
      </g>
    </g>
  </g>
</svg>
